<define-tag pagetitle>DLA-774-1 postgresql-common</define-tag>
<define-tag report_date>2017-1-1</define-tag>
<define-tag packages>postgresql-common</define-tag>
<define-tag isvulnerable>yes</define-tag>
<define-tag fixed>yes</define-tag>
<define-tag fixed-section>no</define-tag>

#use wml::debian::security

