<define-tag pagetitle>DLA-1294-1 golang</define-tag>
<define-tag report_date>2018-2-25</define-tag>
<define-tag secrefs>CVE-2018-7187</define-tag>
<define-tag packages>golang</define-tag>
<define-tag isvulnerable>yes</define-tag>
<define-tag fixed>yes</define-tag>
<define-tag fixed-section>no</define-tag>

#use wml::debian::security

