<define-tag pagetitle>DLA-1356-1 libreoffice</define-tag>
<define-tag report_date>2018-4-19</define-tag>
<define-tag secrefs>CVE-2018-10119 CVE-2018-10120</define-tag>
<define-tag packages>libreoffice</define-tag>
<define-tag isvulnerable>yes</define-tag>
<define-tag fixed>yes</define-tag>
<define-tag fixed-section>no</define-tag>

#use wml::debian::security

