<define-tag pagetitle>DSA-4399-1 ikiwiki</define-tag>
<define-tag report_date>2019-2-28</define-tag>
<define-tag secrefs>CVE-2019-9187</define-tag>
<define-tag packages>ikiwiki</define-tag>
<define-tag isvulnerable>yes</define-tag>
<define-tag fixed>yes</define-tag>
<define-tag fixed-section>no</define-tag>

#use wml::debian::security



</dl>
