<define-tag pagetitle>DLA-590-1 python-django</define-tag>
<define-tag report_date>2016-8-9</define-tag>
<define-tag packages>python-django</define-tag>
<define-tag isvulnerable>yes</define-tag>
<define-tag fixed>yes</define-tag>
<define-tag fixed-section>no</define-tag>

#use wml::debian::security

