<define-tag pagetitle>DLA-567-2 mysql-5.5</define-tag>
<define-tag report_date>2016-8-5</define-tag>
<define-tag secrefs>CVE-2016-3477 CVE-2016-3521 CVE-2016-3615 CVE-2016-5440</define-tag>
<define-tag packages>mysql-5.5</define-tag>
<define-tag isvulnerable>yes</define-tag>
<define-tag fixed>yes</define-tag>
<define-tag fixed-section>no</define-tag>

#use wml::debian::security

